{
  "gitlab_workhorse": {
    "secret_token": "LPnTUMCFZ15mBdnnTaYFRVLpfxtNPyOn7T3/PHRJhmg="
  },
  "gitlab_shell": {
    "secret_token": "8fbbf9a1929e5803dabfa5566c543ba3b207a1b92c24ff2a73303032a34632933a8159a7d1beb79e79f7ea3ff0e5928b0c94b64977c030883cbe07ae2b2fedcb"
  },
  "gitlab_rails": {
    "secret_key_base": "605bb1dbfcfae6354cfcf833546dca3fa3a2865aae314f7827940b201f308c8955aa3ea750c2caafeb12edee9dd21bd4dfcc33cba5e347dccbdff5739e7acf66",
    "db_key_base": "f1f04f56cc489fe35eb179150c333d8fe8f885da19d251ce6934cbea3822c4729e6fda9b4db907272c55de0853facdcb9b53ca9425f50521fded60897bccf31d",
    "otp_key_base": "61d0357574c4b2fc825347d188b974f4606a05c92a9fe626c1cfe07942c6712c9c2bc2e7417a94b33610ec95c84805da147db432f6d5b561093cc01897bdfab8",
    "openid_connect_signing_key": "-----BEGIN RSA PRIVATE KEY-----\nMIIJKgIBAAKCAgEAzrGkIFkGvDcXnDc+ISr30IvKiumKzYF5yW+bAL2dsSu6A9Ms\nY253PlPhUN17DWqgEFrf1bXJmy4Vx6Wa9OF7n/DwzE+teuwbiWYcdD9mDSMhcc9z\nnvOJqfua1KmiRCRCVkYdAjEmNwmJT6mZ9HLe9JtWaAQ/Mj5N7m00Z470OPTTO2l8\nXfOY41t9YCY+w66bloDdTF/CB6lTVljd8/Ue61/rsxERtlgwGypRAfEPcJp+eSJS\nydv73a4OUoLXswfjWBsWd/YbN+CktALyVSZWrqNEb/OQnK9uPgX8sow6vmhODjts\neN9B6oiEBUE3DdssN8XQym5J1wvx+OEHIJ/4aCOM3KtzMDwextVEM5Ryo9lwJAHp\n9gQ02TKCG4VIjkCkE9SE5n8l0ODf42vIzuHJ2RfAxu4nzl5WGVM3u6vhE54EUGjR\nInxSe4N3eydqq2lu4+Fm2c0Gc05Q4ldyLb+On10GGvpAx/iTn/2+FSC0lS9cPgmr\nrcJ12VGaJVutUXoYIW3dyju859V49tJQM1HH0jM8etyK32ulvsZ1OPNXNPn99onp\nq42+dY4uyWnWfZQ/RLgnKrpzXy0MHr34ZNZg2cXhsdhiWX25b4VDNeczPCALbMU1\n4ciNfj9fy3AesHoLWOLd9BM90LCp1sbxhNGMlU0RcQ9pjGGrdm85Hos+l4cCAwEA\nAQKCAgAh3oQJdO0gnFp3E6pPnw3ak32OA7Tl9ehx9KLOnUOgy4yAofLtHCXYBcCv\nEoveZ/FwnKN/DnnJvuR8wYtBw00RqVab9BZ2RQhCHIRfHCBp2K7bSmYkzr1pKDx3\nypA3YEWqg3SvbkRX0m04q475unUEWgvvoXqFjiYRAr4Klic4yg1u99sUPh14a/6A\naePxBsSiBd29bReLT9jDFm7QUgNOCHrD7fEcExlW6jk5+zlPd1FwIgq03yJHcgUQ\nyjX0NT+wqUemQqK1Jk922+C/yTd9CG3ndl7k/e4vpaWB0G6z0r2voVcl+1d+yf3w\nKn6N+7MkNHsBIM9iuKde4+jaFLyMcJuc8vCBkQC7g6T9/E5rIBRTsuYTNFCc3/3s\nP/nJMC4BwJDhQiu428JlJurYc1VdM+Xbt5EONe1k6bQCD+qeVAI362PqpR/rMW6V\nC2ybCsow0V7Cpah5sEBLQpSLpuooyBOBAKRRbkIMUnzHxshSjjO59mTqgh1F7ug5\n11ApQJ+tKx3PTy25yJhCyoA5DDa7KGdfx9AW5RYvu1qSeZUvWBZONYE+4qOIakHh\n9Qiry9hCb7BHAYIIYpoWysY8UbQ4rwqi5OvDWeOD9OSrmLDAiIj6CMhwX0NJE0aD\nhjqTIBRIWpP0YHPH1AJ76TYENuLR+O092C4ZiQoJHINaJbTe0QKCAQEA5tqg+b55\nJR+FPFnUANJSi2138HmMfAbYYPG7a2quL7Mey4aBVZyP7FJT6s6yNF+RErRr3DqT\n4Hvos/ELDKIuhN46z0w/wF4fB5e7yk3f4LAU31QKmb32hxnEbxk8aPpVDQX8PiY0\nAeo9udlUBvVSiy2/mFkZ0jxxrgQdeutrshhpLy7i/mA68i2Ow0Us+sxc6V42WkjW\n+1BZxFEgrxd3IQ+sCC1cpBniDfqTSxfIIfFuvkQqk2qfTKsFXB84QpFClBw0mO6y\nW0GnIy1/eLBV0vJuPK69AeWR3jNvhf2c0B7vjU/dMJpw1LFI+GbVo7fE+Bu+ppep\n1NRPAklZ/TLiSQKCAQEA5TVOlbV3SUn0Cs2V35DJ3gHRujI3LRLrFmPdCkyl7N6C\nBnnDRltvjDr2el+zyM9RvVE1xtdfwFjMmBpI4R5fot+q6JhD8ixfsZZQZWSJkGRT\n3qLK5kIvkoJWpVese2n8BZICRLCdY8g9nOdMeE+8icMTDExuDvsdNh3YBYQeczs/\nvzhYVD75Qh9YEaQgGT8H8FeyHPK0tt6KeChLX1BJgoBXboLTH3W7h8cG06m8LjJR\n12ZDBi8bo5SIbKuXzb/AsNJ7kN4uEWcfmRCflgDO9OIzPuFF0rPVn9qlXdytGHnb\nnlmZMykNnzkufAn4jkfKHbig5u0RRR7/ywoR0ESrTwKCAQEAxmpSwVS8uvOEiIKM\nfMhIuh20YLOX02HuyCP8ei6O1+CUL0nED9koum1oQwC0md8pyXHY4shWITNepooe\nfRVH9lsrINDgWm6LLPN1LEQSkAPHbMvG8K0dHrE+7F48Vd4TC8aBLsmXGa5Cr2Hj\nnrdr4sPHUSID13asHmzbCbMeNUxV23/pCcmb4FrXwW3LYyQTF2EqRh8k54wAG4O/\nG76HXZsiuUSDw2ebq3ga8QfXs5TXIiFklp+lmzfCu5L5v/0pxDMZ4fgGw/iBtvJ8\nBTdKDKzhorZtLRwra1e6GugHx7lPG53w9r1HDQfzN8zrAnQIj1cJXhYsmgiAf+6b\nscvyQQKCAQEA2u7TFE7UFO4Nq+/5UyWSnHsyX96tM2GZqbZToQ3bg2h53EOcEW0v\nHEwJuJQHPy1AD0wtyLNaI3juW+7nZBhGE2X/ctJWPFDESvWf72lbuM8MCWGH2u6n\nUBMtPhuDhhKTBqMThZcJjxDqQR/xvA21sgTiAeJTUf3sRg+1kndDOqACYN0qCbZp\nEg6saZVSj6rUI28wk1QE55OjwegDLpSa0otSeB2AGdG0AZpK3AyJ0bqAz/U+2f5P\nMS2kLeCtTHr3TC6QlqySZk8RMHxfYsF87Q3PEyXMMtlRmLIZOJGbyQBElXlRyztQ\nZqEQ1KwVfZn25fK/xjP1Rge5HrCMmVmuIwKCAQEAixVezWittXmZ9ThH0HAjVkZu\nkN42Ze3wKJZ5d4vSkcZL6OnG11yHMAvk/nmulnWFR16eGGoH9AL5EmnezoLf4h28\ndQ7rtbOvWJ/WJEYLsIvcRpoYDqpOa/XxRKEcRmTWP3O1Ozz/6aZ1221clmhq10Bv\nlv60vuEbLshs0NUIlynQxIf9yT+nP2hHLD5bu/d9vjRhCl/HIuhukFzu+l0gZUfT\npNpM8xlOS9E2wTJ63LLxTSv2PNEWBE6noIAXBDL8bc9KMDEMyGadp8hGiB01q2l9\nhz3dPsBCKu2o3YxhQwdcYlrCSMOYcggVtUv4JYrHj4dhSaa//yMK600PLjdVeg==\n-----END RSA PRIVATE KEY-----\n",
    "ci_jwt_signing_key": "-----BEGIN RSA PRIVATE KEY-----\nMIIJKAIBAAKCAgEA9sMOBnQo2sJiVSAb7rGsql2qjVgJJAydhS9oJnNw8amAywVX\nBVK46K5N56g+wdut7waTWA4xt6JDCiWAYaqz1V4ZqJ90PG1/VH/DhihytT4055r8\nDTRK+Voovr4PBZBXDMZWd1nrLFU9TnDGMP4i4c7oSKnL9y2iIQ0l8ic07Q/F4rkA\nKwd8AkwjYzYXcfglu2TZQyossM2AdLVI7xHivChlf0z57iGw34NItT8GFG41YXtl\ngjYFRh2rOQu9NG7adFf0qA3L8rLVm2GrXv2uzkGR6cxk9VF61EXwhfZB+R1T7/ga\naJ53iss3HOAtzoQTMZb2MeI/ESO+paOkhb3DWEJUv9P0sinWkd0umgiSoMDHxUoH\n6NKq6hpswuzWgBL/2Q/MtMIZdeYNG5y7XC4BWyLzw3I4JAr9Eqmhvr4Tyd/OYO3X\nOt8I+FaaTkxj98eFqBN9WbQaMuATvFvYU8X7hLP80ovblfBUEA/qpbGjHK9y1Xui\n1sYCXw9e9cvGBa6Qh3iRxKXOs7YMy/jtohVmzPn4VLR3peNtU5ZrW8cbo70UAAvG\n/7TAzUQqM5E06YsMQ51JjJniBMzvHvSYRBXH5ulfAAs1sIAwPXZdumFScl70ZbQ3\nTB7XnPbVeaP5haTjhTE8AqZaiYUSVEHrXeq/s9C3ktyP+iDJXvavxiZHdRECAwEA\nAQKCAgEA8uQqoQWj1TjzS7FQbVKskAGkyH44eSiFwLxaO0b0jJt5L92wu4eihT5V\nZsqAA5f2DEqfrFREceohLRKe3QQHAeYfQZC6/GQXqpgcYKjdyDNUJgmzQlgP2IP7\niU1RQfvDA8sS/2YeC8RXlSeCnmT49uYQVL32C/b6GKh1inc3LIWTFkldtf0m/qft\nSVHMIB3PHjb1eJxB40JUyAxNny0uzmDBD144wUKedFQotGc119RnbO3mjBYaeNrp\nWDyK39qh41VUeDskXl/TzJ+F7PmuIE4Aj27mjWbHjbzONT6hz9Ejdxjy/bnGF3NS\na3TrAdWVgwGCkrWNuJRDq415ez+/z+ikzkVTn1KIji/pt3oh91DLEfZAJYVCA5Um\nYhFKc6g6NAqI8ymiszeYxSeldI0jMNRj3+M50eVfewJTxjdkwh7m7ittNtAW6PVl\n3Rj+t9T/dHLIm5mdR7b5m6dmWdAJNG2cPGhYL71KI3V/HjiYWJZsZPFZqBUkGsvy\najQpai4eysJrBcNQTD75HaVtdyZmJ23SYI/p93au4VU9hF6ymUl/IMzqS6/qhOma\nxT/vmHFNqVlsT02WRMWmuR7kNDmqoaWOhZzhRGHpMnIGA8yP5T23jqaPz/5Yml0K\nHq1csbXsv7L2E+6nV9gAf1iqDraPCmipoVbzJq6wvHs2+/to9gECggEBAPxwJB2z\nCNYL9UBgXndN2fydRowjAtdejcZCZcpSd+vT6h2CpDnA4jMC/J7k9W0OBeQMxK7r\nTuHCNsDRH56wh+aUX2R37SG+wTk+esESG+I/IjD3XW8+0xCEsTkZGs4HYVI0K8El\nZTgzJ1Z1GB7XLdyAPfo2jf91800H6DKae3Yypivm+iPvnI4+umixyLIDG9/k5Zds\nuQHc9ZyxgmHufBdlhSLg/8HQ5KpRHdvXp3BvubJ+IbM4aP8kv4DAmTgwN3+DX7Bf\njapNeZgm6Mp+BHPZBxcLhLUORbevZuhR68dpt0wD3xus8PmoIS0ZbxjHPjqCL4+h\nAjB0Lk40WMuy4SECggEBAPo+aQ7qccnURKFgq6UKqCieF7tTfN0xC+lkDFStwJNY\nB5RfTguH/hBy3XF1olp0aBXmzruD5O5NE5x3jUGLTyJc+8jw8MD0MPZelyMgCzlt\n1idM16S0AIgR7ZQqN/6pBpZ0SVMrBVOSoTDZ8ZhXnP/sCNVRPt8EZR+rQDmx5uak\nC+hjuTkyeyKf7NRS5UQtK4xR8X/SrNgDtrKIZGCEfw06dzHz+myPn4B4mMVx7KHS\n3jfnGDUFY6SRgYwBRqvE87KbTiWj2NPO2Z4/v5cLmXEZGyp4KkxTjwdJfRfcIYcY\n0S+2NGOIR1dNzdFrIgnTyYAk1OD/eIJHQ56ZUAyf5fECggEAQ7sS9aUDyeqLcypo\nLjqFMnJAa3k5We/Uuk02YoKeCnhhaGmVBqnqByXWAgwMjaYljnqeixA3qfsiFboG\ncd2LmSJWNe63gUZdMa7B4Ouq75lg4yJ7v01r9BKmOluyBXWVdyjoVHpkHiAbfecN\nAblaZL9D4c6hatmK3jAw7OLmHWCZlU3z75BqwP+zpEOPRbPv1rLjpy1UtltCyzgV\nc5E5Wk2y2xjjhm017Ty2djX2hwRzHqEZCa0o/swtVa5XbewB+ASXuArrR7Zh2aEW\n9L27FBo2/MfqY2ng6tf1FIBmcqq6s3qWciaEwXeK7z7TwCI1YB1uBWt92uJRSkph\nSMZGAQKCAQB+FwBcsajQJ5LFNa6HJI2CmdYfX3vlABeea/kCmeIU3CBFlJgAm29a\n3mXSC5HYvhrMHlZAib7KjC+7gUm9ovImwG9l2nGU5/XbzeGdo0HEmCF1//QQW1qB\nNXdeVr+MI6LcII/pxh2S9KkfslFXj53eHhJ9WciyGsbRZDqiV4+e2z3cxJLJzTPa\nSHbOrU40QgZVV9y1qXPKDGT8JFlfgKN8CN+SXfrqxJt74kgoBLVU/KlXxaue265P\nd7msz9/KIR0h+7suoBZa8zkX0cs50nBoWlwj1BSMDPZel5recN678bdFsStIk5xO\n0zdHtBGcnghD90sEa/VOv5XEzj9VfSQhAoIBAFwNXcSLLlSjoVt6I0TO5gHtuF9o\njgPi7wIIzbsrLB3Jj95y2FBIuCH9fmZxoLq6gpF5uLrkBcMySRWRuUgCWNlIa47s\neQZaF4ijcm7EAQBzWed5os1JT9zTZo4KlMfl+vGoVhJzAUkypxeP67iPdRapZHx8\nQgOb8xzJFhJaSxoABU5ldM0zR4W0ckolmy0Hb2+8d13bFeLsGxAqOYsuTQea40LC\nXkiPpdvPJDXW/BTebQa4gsNCDwLQvDwSSJjVtg8vwpSNAKTy92k7ArXOIVDjDUj0\ncYdLU1bC3cL9RgEyBceLJ+Dy0HHz9LxbCTlrLKrhieyNG5l1udZlqJVu4DA=\n-----END RSA PRIVATE KEY-----\n"
  },
  "gitlab_pages": {
    "gitlab_secret": null,
    "gitlab_id": null,
    "auth_secret": "d79a30b9b593cf8fa0e97434ae1a42c1eda4896c68830a5b8188a45387fb3af03a93eee9bb5e3d5e5d5f0948eceb1eee261fac0369a1263c296b97fc89d7fb4a",
    "api_secret_key": "1vO35RC121Ch9sMDXjAq5LK1XESubXcOarXCmyRl+JI="
  },
  "gitlab_kas": {
    "api_secret_key": "MzEzMjdiNTUxYjZlY2U4NWRmZjBhM2NiNDkzN2FmOWQ="
  },
  "grafana": {
    "secret_key": "f234d1858887e697f6bc62c7265d8c1b",
    "gitlab_secret": "85d49f28fce952ec8806839e6942b92582adc488c8f5b3e78f96af0cecb80f75",
    "gitlab_application_id": "4d2a4a96125f054b8f727bdc1223ccb21d173aba034df0dd7338b4012df87f11",
    "admin_password": "9d2af3122124f9d4188c3e0f980b8164",
    "metrics_basic_auth_password": null
  },
  "registry": {
    "http_secret": "793d02a9bcb8fb1daf8fa0f3f43748bd3233485ddf8323b7e1277301e633f7e75c463667a340d96527cd4a671a4ad21d44b5defa285a64497415f816f36acec5",
    "internal_certificate": "-----BEGIN CERTIFICATE-----\nMIIFBTCCAu2gAwIBAgIBADANBgkqhkiG9w0BAQsFADBGMQwwCgYDVQQGEwNVU0Ex\nDzANBgNVBAoMBkdpdExhYjESMBAGA1UECwwJQ29udGFpbmVyMREwDwYDVQQDDAhS\nZWdpc3RyeTAeFw0yMDExMDIxNzQ3NDhaFw0zMDEwMzExNzQ3NDhaMEYxDDAKBgNV\nBAYTA1VTQTEPMA0GA1UECgwGR2l0TGFiMRIwEAYDVQQLDAlDb250YWluZXIxETAP\nBgNVBAMMCFJlZ2lzdHJ5MIICIjANBgkqhkiG9w0BAQEFAAOCAg8AMIICCgKCAgEA\nwsDFzVSo/NeszdTxAoa3GmXThI3NS3EAeI/q1ALB4VOtwK3CcZX21UlSwJwHPv9M\nXdDG2OMI7SqNBvBAUlWRMUHx/8lAgz9hk/S6H8ULoc921M1kT7ampxm5771ZtcV2\nDss4UTy0yflNS2ZFEWanMS0dkUFchqLOuUyqcm0Tnp/vOUzagq2jX2gNhPj+N2Qs\nUVVitp/Jjyr6I3BC/aui80iWm3k14O8fEq4hgroaIKPEThYN8KDeztACW7ewRywV\nioTe5+0ekBO4gS0+hVn+hcGiq2wxRjKP81gob4i0zCH1nyT3NgMqeOEbU9QCxC+Z\nPvjiGvQcl2MbUyA+X8rHRCnO3/I+8hhHc62O7W4OA3A7cHdDhS4Pw1iKjAy9nNmD\n2srVc6f+EcE6sSz2qsp7JeV+fqMWh9fBSH/pkNrQNQ7tQKcBSxdo2EIKnWbdps/1\nOLD0Cl8G97DQcuWp1+a97SK6YsP2YcBsfJHfFA3I3HySOiZrDfynmhoryqqHxO2z\ntIEnr+xpOfL2S1nsDnW6N4zpu+Dhqkv6Tch1TUcoiRs4NmcrmSzkSiqxuO4zDGSQ\nFNtH0QyH57hEgtf+m0tDwa0brS/jO8xfT1ObxOoXKmk9G1FdkR0szwthsO+F9nin\nEjjCJOXsYvUwBgLhfxIbMiZ4G0aLct9aeXdzV2ZWPacCAwEAATANBgkqhkiG9w0B\nAQsFAAOCAgEAt9dQlwOb8wNp3cOg1JuHxY6V8zcG4pq3uF1Ovwyqc66FstiVQgLU\nv/S73Bh5CbZUhyIr84APrZCW6AWyVfE3KAqOpD9L1N1nP0e1jPMZEekfNZht4pAG\nlidB1r++tA1sxSiyf8f5YeZwmaCQ+1PraefFCWeLYhl5KLvG7barqj4GTmecPGjM\nvo6XfFiH2PtDIum9rFd+LL/WLuVxxsmwzCx/Z/+5yuMM3/NtqGF+Z0bH6FgZxRh5\nZklR9Eg8dJLy7RJRJGUMqrPZ6206186Qg4cdc6mxKvd2c6mrSCJdj/SEPyrfHO1p\nHmeTumZnoVPbZByN57olGYL+jh++FXrFyieGSQ9dlki6d3gIZM2PK5euCVHI5+nD\n2O84seNdQFiDLcRnEPoR9yUTwP8TP9jZb/YypVgcred9TJmyHnfIjpn3QCwlOgjz\nOrXwlEp+Hon0xo6e/aNmXi7v3Rh96MxyFmd3obKqGKsZGt9+AvM3kTTKR3ms/sAa\nvedIs/1XPkW9u6I1MnVvy5FJ3cjYWM5PkWM+PWc5IYTUOU+ndy5CYjHuIsfPtfSv\nmhojlDtp0xmfudORY6BjVN/e4VoIB18vhDOQqI6OP/oWLaf+gnt4g8dJYRa+l0G9\n6ShYz/ytky31/YRahoH/ZndFZ1LdKsd0HhKMI4Cvk6u/PY1LdS8NsJ0=\n-----END CERTIFICATE-----\n",
    "internal_key": "-----BEGIN RSA PRIVATE KEY-----\nMIIJKAIBAAKCAgEAwsDFzVSo/NeszdTxAoa3GmXThI3NS3EAeI/q1ALB4VOtwK3C\ncZX21UlSwJwHPv9MXdDG2OMI7SqNBvBAUlWRMUHx/8lAgz9hk/S6H8ULoc921M1k\nT7ampxm5771ZtcV2Dss4UTy0yflNS2ZFEWanMS0dkUFchqLOuUyqcm0Tnp/vOUza\ngq2jX2gNhPj+N2QsUVVitp/Jjyr6I3BC/aui80iWm3k14O8fEq4hgroaIKPEThYN\n8KDeztACW7ewRywVioTe5+0ekBO4gS0+hVn+hcGiq2wxRjKP81gob4i0zCH1nyT3\nNgMqeOEbU9QCxC+ZPvjiGvQcl2MbUyA+X8rHRCnO3/I+8hhHc62O7W4OA3A7cHdD\nhS4Pw1iKjAy9nNmD2srVc6f+EcE6sSz2qsp7JeV+fqMWh9fBSH/pkNrQNQ7tQKcB\nSxdo2EIKnWbdps/1OLD0Cl8G97DQcuWp1+a97SK6YsP2YcBsfJHfFA3I3HySOiZr\nDfynmhoryqqHxO2ztIEnr+xpOfL2S1nsDnW6N4zpu+Dhqkv6Tch1TUcoiRs4Nmcr\nmSzkSiqxuO4zDGSQFNtH0QyH57hEgtf+m0tDwa0brS/jO8xfT1ObxOoXKmk9G1Fd\nkR0szwthsO+F9ninEjjCJOXsYvUwBgLhfxIbMiZ4G0aLct9aeXdzV2ZWPacCAwEA\nAQKCAgBKmCerQ/gOEFXh6OP/QbY0aDgiF2ZAtSGnDAi39+5m7fQpTuShOP14KEOH\n/rtPx91qOaNQQ3WR0bB+rdsVLi0UntugS2doXghz8VKxBHo2Gg6754e6eI1Qh6wO\nRYps8xsLA4+ongXpLpIKhTuDNLxpO4yNrGlSMF3Z36GRfnH7Wer5GZTAZN2kl2hG\nPFCyyq2m4XuT05QSQDXbCQ6/ttQNNwpotn6Kj0xpjUTMm5eSVOfFuPDR7+wnbsjY\ndH0SZbJCgi4Wy13fdY4//CJsVVIFzWsPGbut1YQJgwTJ46TMY11+/Vuq1n+YGTCs\nZRJCLrEVy6JfDI0+9vjqV/lMG5FCwJfG+0A4pHcu55uYhi2eqrZHMQMWuwCu/yyG\nHHAUTz/Da3stE86KMMpJknyQvrdCk+QWCjydP3jc03Anmg9520mCyfmM/SfPwZ0Z\nXCx1IktO7n13PGJA0RwOMNofOUrEkJWKIKEScUY+SZ+q+BaSwQEuZxp8tmpfwaqY\nk3bXIL7Sk9JcznTGarjWelksUSFgYi77Pllb0Cry6aqtsX5yLCe1TvVbtuv75Aqe\nq8aSDThZzvyWr+ZmfFxgSHwdBBzTHVZdWgP4d6oOq9mTzvOZ7FuxogoEFTG4LPT3\nHUdqa0mvhPM6qNfYze91E4WqE7Qj379zZ8+YlDZL4hetTbnMUQKCAQEA9mOovhmw\nEwCV+cazLcenTg1LoRj12YFEqm9df5Jve7RTOwlHtjPQMxVC+48ZdTIsqAU0UiZK\nufTDUs0rhddwVX6lGmNTE55kdgl59xtOXbBaAI5OWT0bLJRpid6ntTma4y6CWWx5\nxOmT18zRcFIz3GJSu7dedqGfydMV8adSAOvd2p9gGL3GwsaFW5mz+lvYJcsHeMln\naG4JQxa4tUrEOi1It2hZoviGgqxg0ARSBuyIAPGNiCjE9FJvfdZMG06EUuKCKrRO\nodZDazn0mA8sW0+ssNlkcdyccLir7E5XuCSPxDdSkM+HVy58xoX/YkuO0dPsFUtP\nU73iigbOQFLvzQKCAQEAyll+w/ir7yCwjl6M6+mLwbGfXga+6kErr+K139CBgpCe\neZmKiOSwuXwIDvP3cl7tgBAAuKY+lYbh8A2oo5xZ+u69SnJKGspM3YQ9L0lrh7OX\nbLy6wnGNLfe259B9mu1yn+Ebhjmsue3AfD/Hn/9UNS+vhtcjGlZw+16zO4tjaD4q\nx9nptlKx1PWcJcXK3XW7YFrMqkvst6A5n3DSVFkh12qn8XQ0LMWdMA/sQXTQJtQf\n9hKR9Ubw+BdlJ6am7paBJlGd5BtMv8srYYQaroQouZH+UzdRc+B4dMrLwZ2l3QDH\nH+3FN3NdPbCSKNm9ES7f+K3cbgXSCrHxqzM6GL5nQwKCAQEA1CHfwbRKJUIm3gNW\nd37jK89EozHjUd37KaZyYIjKVT5fPn/x7wxTH/gZUI7XA1Eso4i/kE8JnWr/1EVz\nSGvBespsCfkkKMsBgaMNEFTBNubDxqC/EhQLVml9KEe8Ksqq8Rg1ABrmCER2lqDw\nXX1Yy1EYHCh3OzpSYajMxt8hOkvZGgaH7SVPgJj9bm06SL5Urc1M5JC66G18qfdh\nFi2GHvSoG8jLDAZfgRg6zj46BV4WhoFyMp2vXQ+wkC42HniOcvIz0eKlpK7eIu6m\nCVle/krtyuGQmnuvcVl+JBkbax6HbQ+Ylbcntkb/BMmPpKibEUsdgwPxC498AQx0\n/WqqrQKCAQAas4SOx5mojF+/6aoe10qh3JZzCeDXeJITO49UYWc1m2/OC/zD46mO\nUFef4YGdjfk5FOODeix3/ryBuMuwC0m0WxyPXlV5A4jxEiogu0d9OK2ao6zhS6qd\njjqMjG6Gqx6dCk9ffuzT/BOSUbg93Kt3+TroSCtRpmZyRSTRjqsnbkym4pJ8hJ0C\nxQY91cPXRVncdR7cufgaowH3kCOxDbHxgxl2OydHYSxE01URriBpf0RYbErmWt4h\nXrTyboNIqIOSUuLK3u9Zv62RyKTcsoPNOP6ebIZLDCvY/Ym1mt/wMdIU3INRtd9v\n7ITc7x6LzeuwHQEhY5M75g9F0BSyfy2RAoIBAHw5Qhoy9ni8bngw2Q7Sq3fleiWm\n5FVQmAHsAtFd9fh5e4lhwj2x2i5lfx86+DBwjSfRUroADCRTpimfzcC2as1iyKXq\njhGfOTJpmedP9Y3vGdSMCuVJeGKe9KkSfc+HThB3Y16Njp+SnZp2mNWPUxuklIsZ\nBuQgHrOzh0qh06LQE/vu1sStl49adecV4AyyDxpLehGT+YtlD+OePUzNoDd44/K4\nat1KTmsSNe4+4EHagB8Lof5lMiVrHNM7QIbmDvSYt5ygeVtB264iGAUMyl1fsGdw\nXQi0dRXx4krLSwBvt9l9f8nXmO2icTKDuh96NpHy0DXs585R64wDByomC+k=\n-----END RSA PRIVATE KEY-----\n"
  },
  "letsencrypt": {
    "auto_enabled": false
  },
  "mattermost": {
    "email_invite_salt": "b30d35298f1852acd8d1ee016f043075",
    "file_public_link_salt": "7e91d92f1b048e227c56dcb26799b689",
    "sql_at_rest_encrypt_key": "047107989ed1f53f78e84536f4e62f9d"
  },
  "postgresql": {
    "internal_certificate": "-----BEGIN CERTIFICATE-----\nMIIFBzCCAu+gAwIBAgIBADANBgkqhkiG9w0BAQsFADBHMQwwCgYDVQQGEwNVU0Ex\nDzANBgNVBAoMBkdpdExhYjERMA8GA1UECwwIRGF0YWJhc2UxEzARBgNVBAMMClBv\nc3RncmVTUUwwHhcNMjAxMTAyMTc0NzQ5WhcNMzAxMDMxMTc0NzQ5WjBHMQwwCgYD\nVQQGEwNVU0ExDzANBgNVBAoMBkdpdExhYjERMA8GA1UECwwIRGF0YWJhc2UxEzAR\nBgNVBAMMClBvc3RncmVTUUwwggIiMA0GCSqGSIb3DQEBAQUAA4ICDwAwggIKAoIC\nAQDWSME4nvWZwMPJuHXvNmfB+jWZ90tOzXw1AXx4nb7Nx0g9V0UGLZjK3pT5OVZm\nf6E5OsiXYaEQmq/Vq3wGWRhSGxTBwftLdCfkggiH88c1euAch1CRUZF0ub95pUfF\nXa/OBpmAfkjKi0B8yfucG2nBkVK5A4UhirMyEi3QSR7JrL+y2TJtrN5QS9+vbedk\nTKR0QMh/2Un3dGmCbstaW2x4Pl9CvP06KOPa4I9fsgY39sWK4r8dprxwRZk7RaoZ\niTzaS+mSfLmQwXkXAQgBFtn6JMrylnF3/3fRKG9aWen52+kM7d6q18UBEnsdGhCk\nOyZ8FqDfbVrJRZ4piKRNwNe67dwWSurhDUF/nbO/OOdk6jgk6XenoaYvv+Lrx61S\nrCxE5VIVqlZ8gLQCgp0PxS3R7xqia9PhRAeL4q+EYrRJ/opUMP1x/M1ZNMc4ci1w\nPJ9/OBFTmHorSyH5u91N+nOvXaIOnHiaoLZZnYhbfWg1nn+wJYfCXh6hIao0cXj+\nDkNXSGb23sOFDnhE4X9Anwis5jaHRZxHggOodcboILBsFECR4j7pS7gbRrVqSJOB\nIwQm8//F3c9yq6Lx4VdXAcYRbuGiNkLWkdoE6AgLbYe+mqJbepsBZAaeB79vqSLl\nZWJyayrrXDvEK5dwHy33TfjyYtqk1CLcljPDI+CTICM43QIDAQABMA0GCSqGSIb3\nDQEBCwUAA4ICAQDABrn99bY1HAokIa18e0QGg2K+h3kyzt/RmSBdimc4OtBLr3fE\nL1EL5D3bMd6FqLA1Kgz9tCXvZYEYeAYNrLnGVRU5OSnJ5jK0IjOPSnDMLSl3dlFs\nQrgdW8kzNgypIve7RbQcyBQPvtbWlVeDHstP9vZXa4DqFYaWY6REmq3+K3IdZxrc\nzgKH5LEbntk3NwGqB7NvQFdKW3i8BeCS2WpPukGpAfpUICsYBBmkloju1GzdKPRi\ncbEnZUrOAzhaMJPpgZbhpJqYDUsj+UFiGLU8wo9LqaKRmuyo7nC1QdTv2YvQEVxr\nDN6kShlxTRCE2Y/9pK8ijspop9a951eFDBQPQFznDba+ZVRIJtIQDlhGUPzjOzix\n6eWk1K+GHicL6dpCws8zYYQgo53dWHnW+cWZD6uP+FrRFsKrlonZwZBtMzJR7n7i\nytH0O6P6J3ocIaALh7o3qtPNUWZmBo/Fq/CDpudueiOOq5UHvssmQ5Xqx8dHkWPz\nGhb0lbUNsVSrwe08kWViHlyiTvE9kKEdjueqtDy6XRM8vJORzT7yuf9w69zB02WG\nc4cVCLGVHTuISRwyoK4+JDgOMaD1DfyVLOEzBsl/b28sbLQAyV2q7+ihOCAmbfZ/\nxl2q663edo6/+6AUQtSquITJX0KbVcf7i6fAtXApnJxZlZNuTcDhxMLDsw==\n-----END CERTIFICATE-----\n",
    "internal_key": "-----BEGIN RSA PRIVATE KEY-----\nMIIJKAIBAAKCAgEA1kjBOJ71mcDDybh17zZnwfo1mfdLTs18NQF8eJ2+zcdIPVdF\nBi2Yyt6U+TlWZn+hOTrIl2GhEJqv1at8BlkYUhsUwcH7S3Qn5IIIh/PHNXrgHIdQ\nkVGRdLm/eaVHxV2vzgaZgH5IyotAfMn7nBtpwZFSuQOFIYqzMhIt0Ekeyay/stky\nbazeUEvfr23nZEykdEDIf9lJ93Rpgm7LWltseD5fQrz9Oijj2uCPX7IGN/bFiuK/\nHaa8cEWZO0WqGYk82kvpkny5kMF5FwEIARbZ+iTK8pZxd/930ShvWlnp+dvpDO3e\nqtfFARJ7HRoQpDsmfBag321ayUWeKYikTcDXuu3cFkrq4Q1Bf52zvzjnZOo4JOl3\np6GmL7/i68etUqwsROVSFapWfIC0AoKdD8Ut0e8aomvT4UQHi+KvhGK0Sf6KVDD9\ncfzNWTTHOHItcDyffzgRU5h6K0sh+bvdTfpzr12iDpx4mqC2WZ2IW31oNZ5/sCWH\nwl4eoSGqNHF4/g5DV0hm9t7DhQ54ROF/QJ8IrOY2h0WcR4IDqHXG6CCwbBRAkeI+\n6Uu4G0a1akiTgSMEJvP/xd3Pcqui8eFXVwHGEW7hojZC1pHaBOgIC22HvpqiW3qb\nAWQGnge/b6ki5WVicmsq61w7xCuXcB8t90348mLapNQi3JYzwyPgkyAjON0CAwEA\nAQKCAgBRRVbDOsa7gbjAEQ3ppCDGGTerJXeSc6zgDag/ttRfB24GlcrABRsmFjU6\nMNzsEwv6wKjDgWus+H4n89oeLjxjJ5I/ymqcu3lF2WuS5IpxZiEJsOiFtQIN20Ub\nxevqlxXOdgJSEZNZ/mZ+7bxYAK2jlJJjSUp85jYAj5SAorriknpCQs41epL2sVAt\nIOnZyJe237srgiXjjGtX5N2Lb5E8KavHjBYesNN6eCDokoR5RUa23jjN7icaDcuI\nB2v0M3C4+oGj5Vob5MUgTGvUve3+SWYPi6+Na37t/P/+rItpEFbbaHxDH4LAXVoE\nN5aIM0btWUe6dacxHw5VglWOh81JjnBVq27/FxQdHNc2lMXeLI/CplORUiHXTCG/\nNuQhKRsMKgRsQcC0U5mhzT01+4daapKMXATr+QQknBIbPDO97MASdux+t7N5dsNI\niQQPsXAIMbUCFEo2vvn0l5Joigqs2NFStg3psbeNT7w/bm4R3fbVyi+kPHGDzmiW\nA19uNXz9D5By9S+l5VhMt9bhKmuATT//8nZELWX4EK/mDNnIpoDHneEvOMeDuI9v\n4+wBhWMIeMgjRTLJhiahGhhL5C9QSxvxM/mVHvmdwbUOcDO4Yv+prdFQtpFbqJNP\nxrpp4RL1YV5MeZOqR2hEF2P+EsA4oXy066ijKPm6zfhtlSu+AQKCAQEA90q0DumP\n9eSVRTMfSXA9ro55wWc8v2k4PzPjhHyyNzitX0SY1rIJauyM79tySvrjZzIYp7XH\n9EDgFDRyNlsaaAaq5cnqsnZ/wlMKlpKjIOa72D4jg5Q42wwFXDfOfeoCR3hJ4q+Z\noAGLVLJpzG5pUFY7kwaciq4dJvYDbSciurFBDw6NmBF947LI9njrrYAR35zF8tNz\nWiVirMJGfmXTOTRi81vEM8A74r4IUTX8zCAejBbU0VEXnPlsqrID4cerNzeLu/i9\nLX2N/4vm0GRS8RrPEkO7p7mx4HzGp55+xOoiApbwfyabPOd29kLUC7GXAplo1a+3\nKQs9F8/FJcGLrQKCAQEA3dR+NbHx3OmFEqtvSBOCAcK5g0sWCn8dbNDcq01hyHTQ\nkiic+rqNE9Kb+xP5/7SkWx3w20Hbs6MZ4i+v5NclM38jP4MQRPYGFPguuErfA4Ak\nK4h/04Pdvpm/ykZ+8j8e1miZZIAWWMX0MYCCblgjBniuJ9R3BmHt225bkviba4O5\nUYM6/qfcmZxZEE/7cxedUzl2+mS7uqxeGwBHCIt3pc5TCSm0W4t6NYuwNN+6C91h\nhH6cX+Wb+Xw2BlkhZRb9OMY462N3Jr4315CoZBlcwxJAtoCmTZ+KlAgoCZG+GA6e\nJPoBtCGPz8Nh4wwKDyEXTOtlRRZMtkY6qL8yhjEH8QKCAQAnGlXsgbw02qdL4PCS\nkT//qSHRljyB2+Z7//17Bqi7mKe5h8RPNqnMkYkbqGyjNJbey4oggtsSYWvNZhml\nRLShPGSrn0kQXTKIjM8AzkEjQ7jyUakV9ksjP/xc/6oUOPuRR5EPWksFhRj+FJQs\nMk1O2cPj1MjOGQgdEAusp+KS+NJbyiZTpHhul+e1KZvCvJyW6lhWtF7qIz0+Kh4x\ngHJs+j6nUpxsvnn5uajhBpNpx65s4nNWgeck+D/ZofqBKiyFt6/N0mA/oDni7cFa\ntHJ1E5MoxTMYK4HYCIL1IFfVVVx5Ylq3EGi9sbAa8qhLDRLe41kzaOyifdd0O3Nm\nK/ulAoIBAQCbveCOWkxwyRLAtNQASpHwIoKUh1cGL5C9ITaMnluUnU8CDrmH3wnF\nbQxODwxqVq09u5uqlGZnjI9Tmh9oDxTzPsPEh4QYppJGjqheg1Jn5sN+POth2ScJ\n9nAM18mw0lgYOH/Za4RE91Ymmw734bFVjczX8fdO59pTQPvSB/E2XtjxPa1htQDQ\naFCvfzgO6fluwN2jlq2mtfWsB1nXyfNK2by6pikWTKqUhWpE9P5t7hPVLf8j5NTJ\nKEfV1SX5D1bhUWoM+VxiOxKBqfJPtO7Hlj0Q5OndfbGRlNhnP4ey5DBrzYr8qMOL\nHqXO/ljhnl35hxsmki1xm4T7jKEwTaRBAoIBAHopkG2JG7AimOqKp+yz5YotUxQD\nf2ZIfZMJzgleLBBWVDrVt18kfSNHfYQ0aGGiaKhIS6JnTJHHmcJGvtEk1tPENm/D\nkNPMX7wwMOy9809L/JWrSxlpsc6Ly091/upFRfhxOFqyRvb0AvQS+PMlUJ9LsEey\npsaEO9NJkgvuZQt7OIHJsd0CTItEF7jJfk7N3h8GV+nGQA0w5f3Il3Mumo0+pV09\nYfKAtgh5xwQE7yvZOvRn7CzRgEy2qroBSdAo1whYFnrKs2On+9rN1N6yIIDb2JJQ\nyzksl5WsiV0AODyAgyQZ6mayLu9wKlOnM9vPLlta59FGeAdecouoBGJTDWQ=\n-----END RSA PRIVATE KEY-----\n"
  }
}
